{
    "name": "ttracker",
    "license": "MIT",
    "targetType": "none",
    "targetName": "ttracker",
    "dependencies": {
        "ttracker-client" : {
            "path" : "ttracker-client"
        }
    },
    "preGenerateCommands": [
        "cd utils/prebuild && dub build",
        "utils/prebuild/bin/prebuild -i ttracker-client/src/ttracker/build_config.d.in -o ttracker-client/src/ttracker/build_config.d TTracker"
    ],
    "preBuildCommands": [
        "cd utils/prebuild && dub build",
        "utils/prebuild/bin/prebuild -i ttracker-client/src/ttracker/build_config.d.in -o ttracker-client/src/ttracker/build_config.d TTracker"
    ]
}
