{
    "authors": ["Jean-Baptiste Lab"],
    "name": "ttracker-plugin-csv",
    "targetType": "dynamicLibrary",
    "targetPath": "bin",
    "license": "MIT",
    "copyright": "Copyright © 2016, Jean-Baptiste Lab",
    "sourcePaths": [
        "src"
    ],
    "stringImportPaths": [
        "res"
    ],
    "dependencies": {
        "ttracker-lib" : {
			"path": "../../ttracker-lib/"
		}
    }
}
